<?xml version="1.0" encoding="UTF-8"?>
<robot generator="Robot 4.1.2 (Python 3.10.0 on win32)" generated="20211202 10:23:16.449" rpa="false" schemaversion="2">
<suite id="s1" name="Login" source="E:\Pycharm\pythonProject\pythonProject\Android_Project\Tests\Login.robot">
<test id="s1-t1" name="Login">
<kw name="Open Chat21 Application On First Device" library="android-res">
<kw name="Open Chat21 Application" library="android-res">
<arg>${APPIUM-PORT-DEVICE1}</arg>
<kw name="Open Application" library="AppiumLibrary">
<arg>http://localhost:${APPIUM-PORT}/wd/hub</arg>
<arg>platformName=Android</arg>
<arg>deviceName=emulator-5554</arg>
<arg>appPackage=${CHAT21-APPLICATION-ID}</arg>
<arg>appActivity=${CHAT21-APPLICATION-ACTIVITY}</arg>
<arg>automationName=Uiautomator2</arg>
<doc>Opens a new application to given Appium server.
Capabilities of appium server, Android and iOS,
Please check https://github.com/appium/appium/blob/master/docs/en/writing-running-appium/server-args.md
| *Option*            | *Man.* | *Description*     |
| remote_url          | Yes    | Appium server url |
| alias               | no     | alias             |</doc>
<status status="PASS" starttime="20211202 10:23:16.952" endtime="20211202 10:23:38.019"/>
</kw>
<kw name="Run Keyword And Return Status" library="BuiltIn">
<var>${ALERT}</var>
<arg>page should not contain element</arg>
<arg>${ANDROID10-CONTINUE-BUTTON}</arg>
<doc>Runs the given keyword with given arguments and returns the status as a Boolean value.</doc>
<kw name="Page Should Not Contain Element" library="AppiumLibrary">
<arg>${ANDROID10-CONTINUE-BUTTON}</arg>
<doc>Verifies that current page not contains `locator` element.</doc>
<msg timestamp="20211202 10:23:38.645" level="INFO">Current page not contains element 'id=com.android.permissioncontroller:id/continue_button'.</msg>
<status status="PASS" starttime="20211202 10:23:38.020" endtime="20211202 10:23:38.645"/>
</kw>
<msg timestamp="20211202 10:23:38.645" level="INFO">${ALERT} = True</msg>
<status status="PASS" starttime="20211202 10:23:38.019" endtime="20211202 10:23:38.645"/>
</kw>
<kw name="Run Keyword If" library="BuiltIn">
<arg>'${ALERT}' =='False'</arg>
<arg>Bypass Android 10 Alerts</arg>
<doc>Runs the given keyword with the given arguments, if ``condition`` is true.</doc>
<status status="PASS" starttime="20211202 10:23:38.645" endtime="20211202 10:23:38.646"/>
</kw>
<status status="PASS" starttime="20211202 10:23:16.951" endtime="20211202 10:23:38.646"/>
</kw>
<status status="PASS" starttime="20211202 10:23:16.951" endtime="20211202 10:23:38.646"/>
</kw>
<kw name="Signin With User" library="android-res">
<arg>${USER1-DETAILS}[email]</arg>
<arg>${USER1-DETAILS}[password]</arg>
<kw name="Input User Email" library="android-res">
<arg>${EMAIL}</arg>
<kw name="Verify Login Email Field Is Displayed" library="android-res">
<kw name="Wait Until Page Contains Element" library="AppiumLibrary">
<arg>${LOGIN-EMAIL-FIELD}</arg>
<doc>Waits until element specified with `locator` appears on current page.</doc>
<status status="PASS" starttime="20211202 10:23:38.649" endtime="20211202 10:23:38.752"/>
</kw>
<status status="PASS" starttime="20211202 10:23:38.648" endtime="20211202 10:23:38.752"/>
</kw>
<kw name="Input Text" library="AppiumLibrary">
<arg>${LOGIN-EMAIL-FIELD}</arg>
<arg>${EMAIL}</arg>
<doc>Types the given `text` into text field identified by `locator`.</doc>
<msg timestamp="20211202 10:23:38.757" level="INFO">Typing text 'avinashchhetri1997@gmail.com' into text field 'id=chat21.android.demo:id/email'</msg>
<status status="PASS" starttime="20211202 10:23:38.752" endtime="20211202 10:23:39.390"/>
</kw>
<status status="PASS" starttime="20211202 10:23:38.648" endtime="20211202 10:23:39.390"/>
</kw>
<kw name="Input User Password" library="android-res">
<arg>${USERPASSWORD}</arg>
<kw name="Input Text" library="AppiumLibrary">
<arg>${LOGIN-PASSWORD-FIELD}</arg>
<arg>${USERPASSWORD}</arg>
<doc>Types the given `text` into text field identified by `locator`.</doc>
<msg timestamp="20211202 10:23:39.396" level="INFO">Typing text 'avinashbasnet' into text field 'id=chat21.android.demo:id/password'</msg>
<status status="PASS" starttime="20211202 10:23:39.392" endtime="20211202 10:23:40.018"/>
</kw>
<status status="PASS" starttime="20211202 10:23:39.391" endtime="20211202 10:23:40.018"/>
</kw>
<kw name="Submit Login" library="android-res">
<kw name="Click Element" library="AppiumLibrary">
<arg>${LOGIN-SIGNIN-BUTTON}</arg>
<doc>Click element identified by `locator`.</doc>
<msg timestamp="20211202 10:23:40.023" level="INFO">Clicking element 'id=chat21.android.demo:id/login'.</msg>
<status status="PASS" starttime="20211202 10:23:40.019" endtime="20211202 10:23:40.609"/>
</kw>
<status status="PASS" starttime="20211202 10:23:40.019" endtime="20211202 10:23:40.609"/>
</kw>
<kw name="verify login is successful" library="android-res">
<kw name="Wait Until Page Contains Element" library="AppiumLibrary">
<arg>${MAIN-HOME-TAB}</arg>
<doc>Waits until element specified with `locator` appears on current page.</doc>
<status status="PASS" starttime="20211202 10:23:40.610" endtime="20211202 10:23:46.370"/>
</kw>
<status status="PASS" starttime="20211202 10:23:40.610" endtime="20211202 10:23:46.370"/>
</kw>
<status status="PASS" starttime="20211202 10:23:38.647" endtime="20211202 10:23:46.370"/>
</kw>
<kw name="Open Chat21 Application On Second Device" library="android-res">
<kw name="Open Chat21 Application" library="android-res">
<arg>${APPIUM-PORT-DEVICE2}</arg>
<kw name="Open Application" library="AppiumLibrary">
<arg>http://localhost:${APPIUM-PORT}/wd/hub</arg>
<arg>platformName=Android</arg>
<arg>deviceName=emulator-5554</arg>
<arg>appPackage=${CHAT21-APPLICATION-ID}</arg>
<arg>appActivity=${CHAT21-APPLICATION-ACTIVITY}</arg>
<arg>automationName=Uiautomator2</arg>
<doc>Opens a new application to given Appium server.
Capabilities of appium server, Android and iOS,
Please check https://github.com/appium/appium/blob/master/docs/en/writing-running-appium/server-args.md
| *Option*            | *Man.* | *Description*     |
| remote_url          | Yes    | Appium server url |
| alias               | no     | alias             |</doc>
<msg timestamp="20211202 10:23:48.387" level="INFO">Could not connect to port 4725 on host localhost</msg>
<msg timestamp="20211202 10:23:48.387" level="INFO">Could not get IP address for host: localhost</msg>
<msg timestamp="20211202 10:23:52.428" level="WARN">Retrying (Retry(total=2, connect=None, read=None, redirect=None, status=None)) after connection broken by 'NewConnectionError('&lt;urllib3.connection.HTTPConnection object at 0x000002A0AF631600&gt;: Failed to establish a new connection: [WinError 10061] No connection could be made because the target machine actively refused it')': /wd/hub/session</msg>
<msg timestamp="20211202 10:23:56.493" level="WARN">Retrying (Retry(total=1, connect=None, read=None, redirect=None, status=None)) after connection broken by 'NewConnectionError('&lt;urllib3.connection.HTTPConnection object at 0x000002A0AF6316F0&gt;: Failed to establish a new connection: [WinError 10061] No connection could be made because the target machine actively refused it')': /wd/hub/session</msg>
<msg timestamp="20211202 10:24:00.599" level="WARN">Retrying (Retry(total=0, connect=None, read=None, redirect=None, status=None)) after connection broken by 'NewConnectionError('&lt;urllib3.connection.HTTPConnection object at 0x000002A0AF631840&gt;: Failed to establish a new connection: [WinError 10061] No connection could be made because the target machine actively refused it')': /wd/hub/session</msg>
<kw name="Capture Page Screenshot" library="AppiumLibrary">
<doc>Takes a screenshot of the current page and embeds it into the log.</doc>
<msg timestamp="20211202 10:24:05.674" level="INFO" html="true">&lt;/td&gt;&lt;/tr&gt;&lt;tr&gt;&lt;td colspan="3"&gt;&lt;a href="appium-screenshot-1.png"&gt;&lt;img src="appium-screenshot-1.png" width="800px"&gt;&lt;/a&gt;</msg>
<status status="PASS" starttime="20211202 10:24:04.674" endtime="20211202 10:24:05.674"/>
</kw>
<msg timestamp="20211202 10:24:05.914" level="FAIL">MaxRetryError: HTTPConnectionPool(host='localhost', port=4725): Max retries exceeded with url: /wd/hub/session (Caused by NewConnectionError('&lt;urllib3.connection.HTTPConnection object at 0x000002A0AF631990&gt;: Failed to establish a new connection: [WinError 10061] No connection could be made because the target machine actively refused it'))</msg>
<status status="FAIL" starttime="20211202 10:23:46.372" endtime="20211202 10:24:05.915"/>
</kw>
<kw name="Run Keyword And Return Status" library="BuiltIn">
<var>${ALERT}</var>
<arg>page should not contain element</arg>
<arg>${ANDROID10-CONTINUE-BUTTON}</arg>
<doc>Runs the given keyword with given arguments and returns the status as a Boolean value.</doc>
<status status="NOT RUN" starttime="20211202 10:24:05.915" endtime="20211202 10:24:05.915"/>
</kw>
<kw name="Run Keyword If" library="BuiltIn">
<arg>'${ALERT}' =='False'</arg>
<arg>Bypass Android 10 Alerts</arg>
<doc>Runs the given keyword with the given arguments, if ``condition`` is true.</doc>
<status status="NOT RUN" starttime="20211202 10:24:05.915" endtime="20211202 10:24:05.915"/>
</kw>
<status status="FAIL" starttime="20211202 10:23:46.371" endtime="20211202 10:24:05.916"/>
</kw>
<status status="FAIL" starttime="20211202 10:23:46.371" endtime="20211202 10:24:05.917"/>
</kw>
<kw name="Signin With User" library="android-res">
<arg>${USER2-DETAILS}[email]</arg>
<arg>${USER2-DETAILS}[password]</arg>
<status status="NOT RUN" starttime="20211202 10:24:05.918" endtime="20211202 10:24:05.918"/>
</kw>
<status status="FAIL" starttime="20211202 10:23:16.950" endtime="20211202 10:24:05.919">MaxRetryError: HTTPConnectionPool(host='localhost', port=4725): Max retries exceeded with url: /wd/hub/session (Caused by NewConnectionError('&lt;urllib3.connection.HTTPConnection object at 0x000002A0AF631990&gt;: Failed to establish a new connection: [WinError 10061] No connection could be made because the target machine actively refused it'))</status>
</test>
<status status="FAIL" starttime="20211202 10:23:16.452" endtime="20211202 10:24:05.922"/>
</suite>
<statistics>
<total>
<stat pass="0" fail="1" skip="0">All Tests</stat>
</total>
<tag>
</tag>
<suite>
<stat pass="0" fail="1" skip="0" id="s1" name="Login">Login</stat>
</suite>
</statistics>
<errors>
<msg timestamp="20211202 10:23:52.428" level="WARN">Retrying (Retry(total=2, connect=None, read=None, redirect=None, status=None)) after connection broken by 'NewConnectionError('&lt;urllib3.connection.HTTPConnection object at 0x000002A0AF631600&gt;: Failed to establish a new connection: [WinError 10061] No connection could be made because the target machine actively refused it')': /wd/hub/session</msg>
<msg timestamp="20211202 10:23:56.493" level="WARN">Retrying (Retry(total=1, connect=None, read=None, redirect=None, status=None)) after connection broken by 'NewConnectionError('&lt;urllib3.connection.HTTPConnection object at 0x000002A0AF6316F0&gt;: Failed to establish a new connection: [WinError 10061] No connection could be made because the target machine actively refused it')': /wd/hub/session</msg>
<msg timestamp="20211202 10:24:00.599" level="WARN">Retrying (Retry(total=0, connect=None, read=None, redirect=None, status=None)) after connection broken by 'NewConnectionError('&lt;urllib3.connection.HTTPConnection object at 0x000002A0AF631840&gt;: Failed to establish a new connection: [WinError 10061] No connection could be made because the target machine actively refused it')': /wd/hub/session</msg>
</errors>
</robot>
